%YAML 1.1
%TAG !u! tag:unity3d.com,2011:
--- !u!1045 &1
EditorBuildSettings:
  m_ObjectHideFlags: 0
  serializedVersion: 2
  m_Scenes:
  - enabled: 0
    path: 
    guid: 00000000000000000000000000000000
  - enabled: 1
    path: Assets/Scenes/EyesRoom.unity
    guid: 8ea824c0e7f386c4d804568fdb5f88c5
  - enabled: 1
    path: Assets/Scenes/Room.unity
    guid: c2948937e8f83ae4184e1981d703dc39
  - enabled: 1
    path: Assets/Scenes/Room1.unity
    guid: 2bc3c700bfddc794cb2731a08059a922
  - enabled: 1
    path: Assets/Scenes/ClownRoom.unity
    guid: aef40488821adfc4c8d410a208c367f7
  - enabled: 1
    path: Assets/Scenes/Room2.unity
    guid: f85b2af677bfd4c47ac3a98102872162
  - enabled: 1
    path: Assets/Scenes/RagdollRoom.unity
    guid: 8ef260f84c77007489f1ca832834d5e6
  - enabled: 1
    path: Assets/Scenes/HallWay.unity
    guid: ed61f610301aed141b6c7fa0a6fa722d
  m_configObjects: {}
